Our Food Carbon Footprint: Environmental Support for Veganism, Vegetarism, and a Lean-Meat Diet
…
food_consumption <- readr::read_csv('https://raw.githubusercontent.com/rfordatascience/tidytuesday/master/data/2020/2020-02-18/food_consumption.csv')

food_consumption %>% 
  group_by(country) %>% 
  summarize(total_food_consumption = sum(consumption))

Correct Answer:

food_consumption %>% 
  group_by(country) %>% 
  summarize(total_food_consumption = sum(consumption),
            total_food_emission = sum(co2_emmission))

## # A tibble: 130 × 3
##    country    total_food_consumption total_food_emission
##    <chr>                       <dbl>               <dbl>
##  1 Albania                      533.               1778.
##  2 Algeria                      365.                708.
##  3 Angola                       116.                413.
##  4 Argentina                    429.               2172.
##  5 Armenia                      407.               1110.
##  6 Australia                    465.               1939.
##  7 Austria                      469.               1211.
##  8 Bahamas                      301.               1193.
##  9 Bangladesh                   237.                374.
## 10 Barbados                     311.                889.
## # … with 120 more rows
…
**We will come back to the code from #2 and #3 later on!

Mutate():

Mutate is a great function if you want to add a new variable to your data set (as a new column) using existing columns! In comparison to summarize(), mutate() leaves all existing rows and columns in your data frame and simply adds on a new column to the end. Within mutate, you can pass a Boolean argument or perform a calculation across variables. Within mutate(), your argument should first include the name of your new variable, then the assignment operator, then your calculation/manipulation. See below: mutate([new_column_name] = …)

Say we want to create a new variable based on whether the “food_product” type is an animal product or non-animal product. This example would require the use Boolean logic–if [this], then “animal_product”, else “non-animal product”–as the argument. We will specifically use an “ifelse()” statement, with the syntax as follows: “ifelse([test], [if true], [if false])”.

food_consumption %>% 
  mutate(Type = ifelse(food_category %in% c("Beef","Milk - inc. cheese","Lamb & Goat","Pork", "Fish", "Poultry", "Eggs"), "Animal_Product", "NonAnimal_Product"))

## # A tibble: 1,430 × 5
##    country   food_category            consumption co2_emmission Type            
##    <chr>     <chr>                          <dbl>         <dbl> <chr>           
##  1 Argentina Pork                           10.5          37.2  Animal_Product  
##  2 Argentina Poultry                        38.7          41.5  Animal_Product  
##  3 Argentina Beef                           55.5        1712    Animal_Product  
##  4 Argentina Lamb & Goat                     1.56         54.6  Animal_Product  
##  5 Argentina Fish                            4.36          6.96 Animal_Product  
##  6 Argentina Eggs                           11.4          10.5  Animal_Product  
##  7 Argentina Milk - inc. cheese            195.          278.   Animal_Product  
##  8 Argentina Wheat and Wheat Products      103.           19.7  NonAnimal_Produ…
##  9 Argentina Rice                            8.77         11.2  NonAnimal_Produ…
## 10 Argentina Soybeans                        0             0    NonAnimal_Produ…
## # … with 1,420 more rows
…
food_consumption %>% 
  group_by(country) %>% 
  summarize(total_food_consumption = sum(consumption),
            total_food_emission = sum(co2_emmission))

Correct Answer:

food_consumption %>% 
  mutate(Type = ifelse(food_category %in% c("Beef","Milk - inc. cheese","Lamb & Goat","Pork", "Fish", "Poultry", "Eggs"), "Animal_Product", "NonAnimal_Product")) %>% 
  group_by(country, Type) %>% 
  summarize(type_total_consumption = sum(consumption), type_total_emission = sum(co2_emmission))

## # A tibble: 260 × 4
## # Groups:   country [130]
##    country   Type              type_total_consumption type_total_emission
##    <chr>     <chr>                              <dbl>               <dbl>
##  1 Albania   Animal_Product                     382.               1734. 
##  2 Albania   NonAnimal_Product                  151.                 44.1
##  3 Algeria   Animal_Product                     174.                665. 
##  4 Algeria   NonAnimal_Product                  190.                 42.8
##  5 Angola    Animal_Product                      64.4               391. 
##  6 Angola    NonAnimal_Product                   51.6                22.4
##  7 Argentina Animal_Product                     317.               2141. 
##  8 Argentina NonAnimal_Product                  112.                 31.8
##  9 Armenia   Animal_Product                     271.               1076. 
## 10 Armenia   NonAnimal_Product                  136.                 33.5
## # … with 250 more rows
…
type_food_joined = type_total %>% 
  left_join(food_total, by = "country")

Explanation: As I want to keep all the rows in my type_total data frame, while simply adding on the additional variables that exist in my food_total data frame, I used “type_total” as my “TableA” and “food_total” as my “TableB”. Finally, as country is a variable that exists across both data frames, I used it as my key to match the two tables together by shared observations. I then assigned this joining pipeline to the new data table named “type_food_joined”.

Filter():

Filter() is a great function when you want to return only a select subset of rows from your data set. For this function, you simply identify the criteria–specifically, the types of values within a certain variable–in which you would like your rows to be filtered by. It is common to use comparison/logical operators within Filter(), such as > (greater than), < (less than), >= (greater than or equal to), <= (less than or equal to), == (equal to), != (not equal to). In addition, when using logical operators and Boolean statements, it is important to know that the operator for “and” is “&”, and the operator for “or” is “|”. The basic syntax for filter is as follows: filter([variable name] >/</=…)

Looking ahead to the next step of graphing, because this data set contains information for a whooping 130 countries total, I want to scale down my data set to a smaller, more meaningful size. Specifically, I would like to visualize the countries with the highest total_food_emission rates per person annually and the countries with the lowest rates. After examining my data, I decide to take the highest 6 and lowest 6 countries for their total_food_emission values. The highest 6 can be filtered by taking the rows with values more than 1700, and the lowest 6 can be filtered by taking the rows with values lower than 225.

type_food_joined %>% 
  filter(total_food_emission > 1700 | total_food_emission < 225)

## # A tibble: 24 × 6
## # Groups:   country [12]
##    country   Type       type_total_consump… type_total_emiss… total_food_consum…
##    <chr>     <chr>                    <dbl>             <dbl>              <dbl>
##  1 Albania   Animal_Pr…               382.             1734.                533.
##  2 Albania   NonAnimal…               151.               44.1               533.
##  3 Argentina Animal_Pr…               317.             2141.                429.
##  4 Argentina NonAnimal…               112.               31.8               429.
##  5 Australia Animal_Pr…               375.             1896.                465.
##  6 Australia NonAnimal…                90.4              43.1               465.
##  7 Ghana     Animal_Pr…                49.2             164.                101.
##  8 Ghana     NonAnimal…                52.0              53.6               101.
##  9 Iceland   Animal_Pr…               392.             1706.                472.
## 10 Iceland   NonAnimal…                80.8              25.8               472.
## # … with 14 more rows, and 1 more variable: total_food_emission <dbl>
…
